{
  "defaultSeverity": "error",
  "extends": [
    "tslint:recommended"
  ],
  "files": [
    "*.ts", "*.tsx"
  ],
  "rules": {
    "curly": true,
    "indent": [true, "spaces", 2],
    "interface-name": true,
    "no-bitwise": false,
    "no-console": [true, "log"],
    "no-empty-interface": false,
    "no-irregular-whitespace": true,
    "no-trailing-whitespace": true,
    "object-literal-key-quotes": ["as-needed"],
    "object-literal-sort-keys": false,
    "one-variable-per-declaration": false,
    "ordered-imports": false,
    "quotemark": [true, "single", "jsx-double"],
    "semicolon": [true, "never", "ignore-interfaces"],
    "space-within-parens": [true, 0],
    "trailing-comma": [true, {"multiline": "never", "singleline": "never"}],
    "whitespace": [
      true,
      "check-module",
      "check-branch",
      "check-decl",
      "check-operator",
      "check-separator",
      "check-rest-spread",
      "check-type",
      "check-typecast",
      "check-type-operator",
      "check-preblock"
    ]
  },
  "rulesDirectory": []
}